{
  "authors": [
    "Christopho"
  ],
  "categories": [
    "Solarus"
  ],
  "creation_date": "2001-09-07",
  "excerpt": "Et oui, enfin une update !!\n\nLe scénario a subi de grosses modifications ces derniers temps. En effet, l'histoire des neuf frères et soeurs de....",
  "id": "2001-09-07-quelques-changements-dans-le-scenario",
  "image_thumbnail": "../../../../../assets/blog/default_article_thumbnail.jpg",
  "page_override": {
    "meta_description": "",
    "meta_image": "../../../../../assets/images/meta_image_fallback.jpg",
    "meta_title": "Quelques changements dans le scénario",
    "parent": "news",
    "slug": "news/2001-09-07-quelques-changements-dans-le-scenario",
    "title": "Quelques changements dans le scénario"
  },
  "page_slug": "news/2001-09-07-quelques-changements-dans-le-scenario",
  "publish": true,
  "title": "Quelques changements dans le scénario"
}