{
  "authors": [
    "Christopho"
  ],
  "categories": [
    "Solarus"
  ],
  "creation_date": "2001-02-08",
  "excerpt": "Ca y est, moins d'une semaine après les premières images, voici la première démo jouable du jeu ! Je vous donne aussi deux nouveaux screenshots....",
  "id": "2001-02-08-la-premiere-demo",
  "image_thumbnail": "../../../../../assets/blog/default_article_thumbnail.jpg",
  "page_override": {
    "meta_description": "",
    "meta_image": "../../../../../assets/images/meta_image_fallback.jpg",
    "meta_title": "La première démo",
    "parent": "news",
    "slug": "news/2001-02-08-la-premiere-demo",
    "title": "La première démo"
  },
  "page_slug": "news/2001-02-08-la-premiere-demo",
  "publish": true,
  "title": "La première démo"
}