{
  "authors": [
    "Christopho"
  ],
  "categories": [
    "Solarus"
  ],
  "creation_date": "2019-01-22",
  "excerpt": "Bientôt du nouveau sur Zelda-Solarus... Soyez prêts !",
  "id": "2019-01-22-bientot",
  "image_thumbnail": "2019-01-22-bientot/cover.jpg",
  "page_override": {
    "meta_description": "",
    "meta_image": "../../../../../assets/images/meta_image_fallback.jpg",
    "meta_title": "Bientôt...",
    "parent": "news",
    "slug": "news/2019-01-22-bientot",
    "title": "Bientôt..."
  },
  "page_slug": "news/2019-01-22-bientot",
  "publish": true,
  "title": "Bientôt..."
}