{
  "authors": [
    "Christopho"
  ],
  "categories": [
    "Solarus"
  ],
  "creation_date": "2003-08-11",
  "excerpt": "Je viens juste de rentrer de vacances et j'en ai donc profité pour rouvrir le site le plus vite possible. Une personne du site qui hébergeait nos....",
  "id": "2003-08-11-le-site-fonctionne-a-nouveau",
  "image_thumbnail": "../../../../../assets/blog/default_article_thumbnail.jpg",
  "page_override": {
    "meta_description": "",
    "meta_image": "../../../../../assets/images/meta_image_fallback.jpg",
    "meta_title": "Le site fonctionne à nouveau",
    "parent": "news",
    "slug": "news/2003-08-11-le-site-fonctionne-a-nouveau",
    "title": "Le site fonctionne à nouveau"
  },
  "page_slug": "news/2003-08-11-le-site-fonctionne-a-nouveau",
  "publish": true,
  "title": "Le site fonctionne à nouveau"
}