{
  "authors": [
    "Christopho"
  ],
  "categories": [
    "Solarus"
  ],
  "creation_date": "2003-04-26",
  "excerpt": "1 an jour pour jour ! Que d'émotion d'avoir pu vous faire découvrir ce que nous voulions, l'histoire que nous avons voulu vous raconter, on espère....",
  "id": "2003-04-26-happy-birthday-solarus",
  "image_thumbnail": "../../../../../assets/blog/default_article_thumbnail.jpg",
  "page_override": {
    "meta_description": "",
    "meta_image": "../../../../../assets/images/meta_image_fallback.jpg",
    "meta_title": "HAPPY BIRTHDAY SOLARUS !",
    "parent": "news",
    "slug": "news/2003-04-26-happy-birthday-solarus",
    "title": "HAPPY BIRTHDAY SOLARUS !"
  },
  "page_slug": "news/2003-04-26-happy-birthday-solarus",
  "publish": true,
  "title": "HAPPY BIRTHDAY SOLARUS !"
}