{
  "authors": [
    "Christopho"
  ],
  "categories": [
    "Solarus"
  ],
  "creation_date": "2005-07-20",
  "excerpt": "Voilà, avec un peu de retard la démo 2.0 de notre projet Zelda : Mercuris' Chest est enfin disponible en version finale ! De nombreux bugs ont....",
  "id": "2005-07-20-zelda-mercuris-chest-demo-2-0-finale",
  "image_thumbnail": "../../../../../assets/blog/default_article_thumbnail.jpg",
  "page_override": {
    "meta_description": "",
    "meta_image": "../../../../../assets/images/meta_image_fallback.jpg",
    "meta_title": "Zelda : Mercuris' Chest démo 2.0 finale !",
    "parent": "news",
    "slug": "news/2005-07-20-zelda-mercuris-chest-demo-2-0-finale",
    "title": "Zelda : Mercuris' Chest démo 2.0 finale !"
  },
  "page_slug": "news/2005-07-20-zelda-mercuris-chest-demo-2-0-finale",
  "publish": true,
  "title": "Zelda : Mercuris' Chest démo 2.0 finale !"
}