{
  "authors": [
    "Christopho"
  ],
  "categories": [
    "Solarus"
  ],
  "creation_date": "2005-07-21",
  "excerpt": "De nombreux joueurs anglophones nous réclament une version anglaise de Zelda : Mystery of Solarus. Malheureusement, le jeu n'avait pas été prévu....",
  "id": "2005-07-21-zelda-m-c-en-anglais-le-10-aout",
  "image_thumbnail": "../../../../../assets/blog/default_article_thumbnail.jpg",
  "page_override": {
    "meta_description": "",
    "meta_image": "../../../../../assets/images/meta_image_fallback.jpg",
    "meta_title": "Zelda : M'C en anglais le 10 août !",
    "parent": "news",
    "slug": "news/2005-07-21-zelda-m-c-en-anglais-le-10-aout",
    "title": "Zelda : M'C en anglais le 10 août !"
  },
  "page_slug": "news/2005-07-21-zelda-m-c-en-anglais-le-10-aout",
  "publish": true,
  "title": "Zelda : M'C en anglais le 10 août !"
}