{
  "authors": [
    "Christopho"
  ],
  "categories": [
    "Solarus"
  ],
  "creation_date": "2003-01-28",
  "excerpt": "Jusqu'à présent, ce n'était pas très pratique d'imprimer les soluces et les autres pages du site, à cause du design. J'ai donc rajouté un lien....",
  "id": "2003-01-28-imprimer-les-pages-du-site",
  "image_thumbnail": "../../../../../assets/blog/default_article_thumbnail.jpg",
  "page_override": {
    "meta_description": "",
    "meta_image": "../../../../../assets/images/meta_image_fallback.jpg",
    "meta_title": "Imprimer les pages du site",
    "parent": "news",
    "slug": "news/2003-01-28-imprimer-les-pages-du-site",
    "title": "Imprimer les pages du site"
  },
  "page_slug": "news/2003-01-28-imprimer-les-pages-du-site",
  "publish": true,
  "title": "Imprimer les pages du site"
}