{
  "authors": [
    "Christopho"
  ],
  "categories": [
    "Solarus"
  ],
  "creation_date": "2003-01-26",
  "excerpt": "Salut à tous ! Les problèmes de connexion au chat semblent avoir été réglés et tout le monde a pu participer au quizz ! Les scores on été....",
  "id": "2003-01-26-resultats-du-concours",
  "image_thumbnail": "../../../../../assets/blog/default_article_thumbnail.jpg",
  "page_override": {
    "meta_description": "",
    "meta_image": "../../../../../assets/images/meta_image_fallback.jpg",
    "meta_title": "Résultats du concours !",
    "parent": "news",
    "slug": "news/2003-01-26-resultats-du-concours",
    "title": "Résultats du concours !"
  },
  "page_slug": "news/2003-01-26-resultats-du-concours",
  "publish": true,
  "title": "Résultats du concours !"
}