{
  "authors": [
    "Christopho"
  ],
  "categories": [
    "Solarus"
  ],
  "creation_date": "2002-11-14",
  "excerpt": "Salut à tous ! Ca faisait longtemps que vous nous le demandiez et que nous vous le promettions, alors voilà qui devrait vous faire plaisir :....",
  "id": "2002-11-14-z-a-p-un-screenshot-par-jour",
  "image_thumbnail": "../../../../../assets/blog/default_article_thumbnail.jpg",
  "page_override": {
    "meta_description": "",
    "meta_image": "../../../../../assets/images/meta_image_fallback.jpg",
    "meta_title": "Z.A.P. : un screenshot par jour !",
    "parent": "news",
    "slug": "news/2002-11-14-z-a-p-un-screenshot-par-jour",
    "title": "Z.A.P. : un screenshot par jour !"
  },
  "page_slug": "news/2002-11-14-z-a-p-un-screenshot-par-jour",
  "publish": true,
  "title": "Z.A.P. : un screenshot par jour !"
}