{
  "authors": [
    "Christopho"
  ],
  "categories": [
    "Solarus"
  ],
  "creation_date": "2002-12-15",
  "excerpt": "Salut à tous ! Il était temps que nous changions le design des forums ! Nous les avons déménagés sur le nouveau serveur, mais le mieux est....",
  "id": "2002-12-15-relookage-des-forums",
  "image_thumbnail": "../../../../../assets/blog/default_article_thumbnail.jpg",
  "page_override": {
    "meta_description": "",
    "meta_image": "../../../../../assets/images/meta_image_fallback.jpg",
    "meta_title": "Relookage des forums",
    "parent": "news",
    "slug": "news/2002-12-15-relookage-des-forums",
    "title": "Relookage des forums"
  },
  "page_slug": "news/2002-12-15-relookage-des-forums",
  "publish": true,
  "title": "Relookage des forums"
}