{
  "delegate_entity_type": "resource-pack",
  "has_breadcrumb": true,
  "meta_description": "Pack de ressources Solarus (sprites, tilesets, sons, musiques, scripts)",
  "meta_image": "../../../assets/images/meta_image_fallback.jpg",
  "meta_title": "Pack de ressource",
  "parent": "development/resource-packs",
  "publish": true
}