{
  "has_breadcrumb": true,
  "meta_description": "Solarus Resource packs (sprites, tilesets, sounds, musics, scripts)",
  "meta_image": "../../../assets/images/meta_image_fallback.jpg",
  "meta_title": "Resource packs",
  "parent": "development",
  "publish": true,
  "slug": "development/resource-packs",
  "title": "Resource packs"
}