{
  "authors": [
    "Binbin"
  ],
  "categories": [
    "Solarus"
  ],
  "creation_date": "2018-03-12",
  "excerpt": "Cette semaine, nous avons beaucoup avancé sur les différentes grottes de Cocolint. Cela commence vraiment à devenir très classe !",
  "id": "2018-03-12-les-grottes",
  "image_thumbnail": "../../../../../assets/blog/default_article_thumbnail.jpg",
  "page_override": {
    "meta_description": "",
    "meta_image": "../../../../../assets/images/meta_image_fallback.jpg",
    "meta_title": "Les grottes",
    "parent": "news",
    "slug": "news/2018-03-12-les-grottes",
    "title": "Les grottes"
  },
  "page_slug": "news/2018-03-12-les-grottes",
  "publish": true,
  "title": "Les grottes"
}