{
  "authors": [
    "Binbin"
  ],
  "categories": [
    "Solarus"
  ],
  "creation_date": "2018-03-28",
  "excerpt": "Cette semaine, nous avons beaucoup travaillé sur la suite de la quête principale. Cela avance maintenant vraiment très vite ! Nous avons du....",
  "id": "2018-03-28-link-et-marine",
  "image_thumbnail": "../../../../../assets/blog/default_article_thumbnail.jpg",
  "page_override": {
    "meta_description": "",
    "meta_image": "../../../../../assets/images/meta_image_fallback.jpg",
    "meta_title": "Link et Marine",
    "parent": "news",
    "slug": "news/2018-03-28-link-et-marine",
    "title": "Link et Marine"
  },
  "page_slug": "news/2018-03-28-link-et-marine",
  "publish": true,
  "title": "Link et Marine"
}