{
  "authors": [
    "Christopho"
  ],
  "categories": [
    "Solarus"
  ],
  "creation_date": "2001-08-08",
  "excerpt": "Dernière mise à jour avant les vacances ! En effet je pars cette nuit et pour dix jours. Je reviendrai donc vers le 19 août. Mais d'ici là vous....",
  "id": "2001-08-08-vacances",
  "image_thumbnail": "../../../../../assets/blog/default_article_thumbnail.jpg",
  "page_override": {
    "meta_description": "",
    "meta_image": "../../../../../assets/images/meta_image_fallback.jpg",
    "meta_title": "Vacances !",
    "parent": "news",
    "slug": "news/2001-08-08-vacances",
    "title": "Vacances !"
  },
  "page_slug": "news/2001-08-08-vacances",
  "publish": true,
  "title": "Vacances !"
}