{
  "authors": [
    "Christopho"
  ],
  "categories": [
    "Solarus"
  ],
  "creation_date": "2001-08-02",
  "excerpt": "Ouvert depuis le 4 Juillet, le mini-site dédié à Zelda : Mystery of Solarus connaùt un grand succès et à partir d'aujourd'hui il est devient un....",
  "id": "2001-08-02-le-mini-site-devient-un-site-a-part-entiere",
  "image_thumbnail": "../../../../../assets/blog/default_article_thumbnail.jpg",
  "page_override": {
    "meta_description": "",
    "meta_image": "../../../../../assets/images/meta_image_fallback.jpg",
    "meta_title": "Le mini-site devient un site à part entière !!",
    "parent": "news",
    "slug": "news/2001-08-02-le-mini-site-devient-un-site-a-part-entiere",
    "title": "Le mini-site devient un site à part entière !!"
  },
  "page_slug": "news/2001-08-02-le-mini-site-devient-un-site-a-part-entiere",
  "publish": true,
  "title": "Le mini-site devient un site à part entière !!"
}