{
  "authors": [
    "Christopho"
  ],
  "categories": [
    "Solarus"
  ],
  "creation_date": "2011-12-15",
  "excerpt": "Pour pouvoir déposer Zelda Mystery of Solarus DX au pied du sapin, rien de telle qu'une boîte officielle !",
  "id": "2011-12-15-zelda-mystery-of-solarus-dx-la-boite-a-fabriquer-vous-meme",
  "image_thumbnail": "../../../../../assets/blog/default_article_thumbnail.jpg",
  "page_override": {
    "meta_description": "",
    "meta_image": "../../../../../assets/images/meta_image_fallback.jpg",
    "meta_title": "Zelda Mystery of Solarus DX : la boîte à fabriquer vous-même !",
    "parent": "news",
    "slug": "news/2011-12-15-zelda-mystery-of-solarus-dx-la-boite-a-fabriquer-vous-meme",
    "title": "Zelda Mystery of Solarus DX : la boîte à fabriquer vous-même !"
  },
  "page_slug": "news/2011-12-15-zelda-mystery-of-solarus-dx-la-boite-a-fabriquer-vous-meme",
  "publish": true,
  "title": "Zelda Mystery of Solarus DX : la boîte à fabriquer vous-même !"
}