{
  "authors": [
    "Christopho"
  ],
  "categories": [
    "Solarus"
  ],
  "creation_date": "2011-12-18",
  "excerpt": "La version Mac OS X de Zelda Mystery of Solarus DX est disponible depuis hier (merci à vlag67 ^^). Plusieurs personnes nous ont cependant signalé....",
  "id": "2011-12-18-souci-avec-la-version-mac",
  "image_thumbnail": "../../../../../assets/blog/default_article_thumbnail.jpg",
  "page_override": {
    "meta_description": "",
    "meta_image": "../../../../../assets/images/meta_image_fallback.jpg",
    "meta_title": "Souci avec la version Mac",
    "parent": "news",
    "slug": "news/2011-12-18-souci-avec-la-version-mac",
    "title": "Souci avec la version Mac"
  },
  "page_slug": "news/2011-12-18-souci-avec-la-version-mac",
  "publish": true,
  "title": "Souci avec la version Mac"
}