{
  "authors": [
    "Christopho"
  ],
  "categories": [
    "Solarus"
  ],
  "creation_date": "2003-07-16",
  "excerpt": "Vous ne rêvez pas, la démo de Zelda : Advanced Project est sortie ! Nous avons en effet préféré ne pas annoncer de date pour éviter d'avoir à....",
  "id": "2003-07-16-zap-la-demo",
  "image_thumbnail": "../../../../../assets/blog/default_article_thumbnail.jpg",
  "page_override": {
    "meta_description": "",
    "meta_image": "../../../../../assets/images/meta_image_fallback.jpg",
    "meta_title": "ZAP : la démo !",
    "parent": "news",
    "slug": "news/2003-07-16-zap-la-demo",
    "title": "ZAP : la démo !"
  },
  "page_slug": "news/2003-07-16-zap-la-demo",
  "publish": true,
  "title": "ZAP : la démo !"
}