{
  "authors": [
    "Christopho"
  ],
  "categories": [
    "Solarus"
  ],
  "creation_date": "2007-04-01",
  "excerpt": "...a fait déborder le vase? Je ne pourrai pas vous donner les news promises sur Mercuris' Chest. Malheureusement, suite aux nombreuses critiques....",
  "id": "2007-04-01-la-goutte-d-eau",
  "image_thumbnail": "../../../../../assets/blog/default_article_thumbnail.jpg",
  "page_override": {
    "meta_description": "",
    "meta_image": "../../../../../assets/images/meta_image_fallback.jpg",
    "meta_title": "La goutte d'eau...",
    "parent": "news",
    "slug": "news/2007-04-01-la-goutte-d-eau",
    "title": "La goutte d'eau..."
  },
  "page_slug": "news/2007-04-01-la-goutte-d-eau",
  "publish": true,
  "title": "La goutte d'eau..."
}