{
  "has_breadcrumb": true,
  "meta_description": "Page de téléchargement du moteur de jeu Solarus.",
  "meta_image": "../../../assets/images/meta_image_fallback.jpg",
  "meta_title": "Téléchargement",
  "parent": "solarus",
  "publish": true,
  "slug": "solarus/download",
  "title": "Téléchargement"
}