{
  "layout": "homepage",
  "meta_description": "A free and open-source Action-RPG 2D game engine",
  "meta_image": "../../../assets/images/meta_image_fallback.jpg",
  "meta_title": "Home",
  "publish": true,
  "slug": "home",
  "title": "Home"
}