{
  "authors": [
    "Christopho"
  ],
  "categories": [
    "Solarus"
  ],
  "creation_date": "2010-08-22",
  "excerpt": "Vous avez sans doute constaté que le site a été indisponible plusieurs heures, en fin d'après-midi et jusque dans la soirée. Le serveur avait....",
  "id": "2010-08-22-perturbations-sur-le-serveur",
  "image_thumbnail": "../../../../../assets/blog/default_article_thumbnail.jpg",
  "page_override": {
    "meta_description": "",
    "meta_image": "../../../../../assets/images/meta_image_fallback.jpg",
    "meta_title": "Perturbations sur le serveur",
    "parent": "news",
    "slug": "news/2010-08-22-perturbations-sur-le-serveur",
    "title": "Perturbations sur le serveur"
  },
  "page_slug": "news/2010-08-22-perturbations-sur-le-serveur",
  "publish": true,
  "title": "Perturbations sur le serveur"
}