{
  "authors": [
    "Christopho"
  ],
  "categories": [
    "Solarus"
  ],
  "creation_date": "2002-04-21",
  "excerpt": "A quatre jours de la sortie officielle de ZS, je vous propose dès maintenant la notice du jeu sur le site, histoire de vous faire (im)patienter un....",
  "id": "2002-04-21-la-notice",
  "image_thumbnail": "../../../../../assets/blog/default_article_thumbnail.jpg",
  "page_override": {
    "meta_description": "",
    "meta_image": "../../../../../assets/images/meta_image_fallback.jpg",
    "meta_title": "La notice !",
    "parent": "news",
    "slug": "news/2002-04-21-la-notice",
    "title": "La notice !"
  },
  "page_slug": "news/2002-04-21-la-notice",
  "publish": true,
  "title": "La notice !"
}