{
  "age": "Tous publics",
  "authors": [
    "Solarus Team"
  ],
  "controls": [
    "keyboard",
    "gamepad"
  ],
  "downloads": [
    {
      "content": "downloads/any.md",
      "file": "http://www.solarus-games.org/downloads/games/zsdx/zsdx-1.12.2.solarus",
      "label": ".solarus file",
      "platform": "any",
      "version": "1.12.2"
    }
  ],
  "excerpt": "La suite d'A Link to the Past, et le tout premier jeu fait avec Solarus.",
  "extras": [
    {
      "icon": "film",
      "icon_category": "fa",
      "label": "Solution vidéo",
      "target": "_blank",
      "title": "Solution vidéo",
      "type": "link",
      "url": "https://www.youtube.com/watch?v=CY1z5BGBSq0&list=PLzJ4jb-Y0ufyvGrqfDpotZHUvZrcswjGR"
    },
    {
      "icon": "book",
      "icon_category": "fa",
      "label": "Solution",
      "target": "",
      "title": "Solution",
      "type": "link",
      "url": "/fr/games/the-legend-of-zelda-mystery-of-solarus-dx/walkthrough"
    }
  ],
  "icons": {
    "128x128": "icons/icon_128x128.png",
    "16x16": "icons/icon_16x16.png",
    "32x32": "icons/icon_32x32.png",
    "64x64": "icons/icon_64x64.png"
  },
  "id": "game-the-legend-of-zelda-mystery-of-solarus-dx",
  "image_cover": "images/cover.jpg",
  "image_logo": "images/logo.png",
  "image_logo_author": "../../../assets/authors/solarus_team.png",
  "image_thumbnail": "images/thumbnail.png",
  "languages": [
    "Anglais",
    "Français",
    "Italien",
    "Espagnol",
    "Allemand",
    "Chinois traditionnel",
    "Chinois simplifié"
  ],
  "licenses": [
    "GPL v3",
    "CC-BY-SA 4.0",
    "Proprietary (Fair use)"
  ],
  "medias": [
    {
      "id": "BUxREyXILLs",
      "thumbnail": "medias/screen_1.png",
      "type": "youtube"
    },
    {
      "image": "medias/screen_2.png",
      "thumbnail": "medias/screen_2.png",
      "type": "image"
    },
    {
      "image": "medias/screen_3.png",
      "thumbnail": "medias/screen_3.png",
      "type": "image"
    },
    {
      "image": "medias/screen_4.png",
      "thumbnail": "medias/screen_4.png",
      "type": "image"
    },
    {
      "image": "medias/screen_5.png",
      "thumbnail": "medias/screen_5.png",
      "type": "image"
    },
    {
      "image": "medias/screen_6.png",
      "thumbnail": "medias/screen_6.png",
      "type": "image"
    },
    {
      "image": "medias/screen_7.png",
      "thumbnail": "medias/screen_7.png",
      "type": "image"
    },
    {
      "image": "medias/screen_8.png",
      "thumbnail": "medias/screen_8.png",
      "type": "image"
    }
  ],
  "page_override": {
    "meta_description": "Le premier jeu amateur fait avec Solarus, une suite à A Link to the Past.",
    "meta_image": "images/thumbnail.png",
    "meta_title": "The Legend of Zelda: Mystery of Solarus DX",
    "slug": "games/the-legend-of-zelda-mystery-of-solarus-dx",
    "title": "The Legend of Zelda: Mystery of Solarus DX"
  },
  "page_slug": "games/the-legend-of-zelda-mystery-of-solarus-dx",
  "players": 1,
  "publish": true,
  "release_date": "2011-12-16",
  "solarus_version": "1.6.x",
  "source_code": "https://gitlab.com/solarus-games/zsdx",
  "states": [
    "Publié"
  ],
  "title": "The Legend of Zelda: Mystery of Solarus DX",
  "types": [
    "Action-RPG",
    "Aventure"
  ],
  "version": "1.12.2"
}
