{
  "authors": [
    "Olivier Cléro"
  ],
  "categories": [
    "Website"
  ],
  "creation_date": "2020-01-12",
  "excerpt": "Le site a désormais une section Tutoriels qui accueille les différents tutos pour apprendre à utiliser Solarus.",
  "id": "article-2020-01-12-tutorials-on-the-website",
  "image_thumbnail": "2020-01-12-tutorials-on-the-website/cover.jpg",
  "page_override": {
    "meta_description": "Le site a désormais une section Tutoriels qui accueille les différents tutos pour apprendre à utiliser Solarus.",
    "meta_image": "../../../../assets/images/meta_image_fallback.jpg",
    "meta_title": "Publication des tutoriels sur le site",
    "parent": "news",
    "slug": "news/2020-01-12-tutorials-on-the-website",
    "title": "Publication des tutoriels sur le site"
  },
  "page_slug": "news/2020-01-12-tutorials-on-the-website",
  "publish": true,
  "title": "Publication des tutoriels sur le site"
}