{
  "excerpt": "Migration guide from Solarus 1.1 to Solarus 1.2.",
  "id": "book-chapter-solarus-official-guide-migration-from-v1.1-to-v1.2",
  "image_thumbnail": "images/thumbnail.png",
  "index": 2,
  "origin_tree": "development/tutorials/solarus-official-guide",
  "page_override": {
    "meta_description": "Migration guide from Solarus 1.1 to Solarus 1.2.",
    "meta_image": "../../../../book/tutorial/solarus-official-guide/images/thumbnail.png",
    "meta_title": "From v1.1 to v1.2",
    "parent": "development/tutorials/solarus-official-guide/migration",
    "slug": "development/tutorials/solarus-official-guide/migration/from-v1-1-to-v1-2",
    "title": "From v1.1 to v1.2"
  },
  "page_slug": "development/tutorials/solarus-official-guide/migration/from-v1-1-to-v1-2",
  "publish": true,
  "title": "From v1.1 to v1.2"
}
