{
  "excerpt": "Migration guide from Solarus.",
  "id": "book-chapter-solarus-official-guide-migration",
  "image_thumbnail": "images/thumbnail.png",
  "index": 2,
  "origin_tree": "development/tutorials/solarus-official-guide",
  "page_override": {
    "meta_description": "Migration guide from Solarus.",
    "meta_image": "../../../book/tutorial/solarus-official-guide/images/thumbnail.png",
    "meta_title": "Migration",
    "parent": "development/tutorials/solarus-official-guide",
    "slug": "development/tutorials/solarus-official-guide/migration",
    "title": "Migration"
  },
  "page_slug": "development/tutorials/solarus-official-guide/migration",
  "publish": true,
  "title": "Migration"
}
