{
  "authors": [
    "Christopho"
  ],
  "categories": [
    "Solarus"
  ],
  "creation_date": "2002-01-13",
  "excerpt": "Salut à tous !\n\nCe week-end a été marqué par la reprise concrète de la programmation du jeu. En effet il faut bien avouer que je n'ai pas....",
  "id": "2002-01-13-le-niveau-7-est-boucle",
  "image_thumbnail": "../../../../../assets/blog/default_article_thumbnail.jpg",
  "page_override": {
    "meta_description": "",
    "meta_image": "../../../../../assets/images/meta_image_fallback.jpg",
    "meta_title": "Le niveau 7 est bouclé !",
    "parent": "news",
    "slug": "news/2002-01-13-le-niveau-7-est-boucle",
    "title": "Le niveau 7 est bouclé !"
  },
  "page_slug": "news/2002-01-13-le-niveau-7-est-boucle",
  "publish": true,
  "title": "Le niveau 7 est bouclé !"
}