{
  "authors": [
    "Christopho"
  ],
  "categories": [
    "Solarus"
  ],
  "creation_date": "2004-05-22",
  "excerpt": "Jusque là, vous n'aviez pas beaucoup d'infos concernant notre projet ZMC (titre toujours aussi énigmatique), nous y remédions avec cette annonce :....",
  "id": "2004-05-22-zmc-a-avance",
  "image_thumbnail": "../../../../../assets/blog/default_article_thumbnail.jpg",
  "page_override": {
    "meta_description": "",
    "meta_image": "../../../../../assets/images/meta_image_fallback.jpg",
    "meta_title": "ZMC : Ça avance",
    "parent": "news",
    "slug": "news/2004-05-22-zmc-a-avance",
    "title": "ZMC : Ça avance"
  },
  "page_slug": "news/2004-05-22-zmc-a-avance",
  "publish": true,
  "title": "ZMC : Ça avance"
}