{
  "authors": [
    "Christopho"
  ],
  "categories": [
    "Solarus"
  ],
  "creation_date": "2015-08-15",
  "excerpt": "Our new game Zelda Return of the Hylian (Solarus Edition) comes with a new bugfix release of Solarus and Solarus Quest Editor. A lot of issues that....",
  "id": "2015-08-15-bugfix-release-1-4-3-engine-and-editor",
  "image_thumbnail": "../../../../../assets/blog/default_article_thumbnail.jpg",
  "page_override": {
    "meta_description": "",
    "meta_image": "../../../../../assets/images/meta_image_fallback.jpg",
    "meta_title": "Bugfix release 1.4.3 (engine and editor)",
    "parent": "news",
    "slug": "news/2015-08-15-bugfix-release-1-4-3-engine-and-editor",
    "title": "Bugfix release 1.4.3 (engine and editor)"
  },
  "page_slug": "news/2015-08-15-bugfix-release-1-4-3-engine-and-editor",
  "publish": true,
  "title": "Bugfix release 1.4.3 (engine and editor)"
}