{
  "authors": [
    "Christopho"
  ],
  "categories": [
    "Solarus"
  ],
  "creation_date": "2010-02-10",
  "excerpt": "Welcome to the development blog of Solarus, the open-source Zelda-like 2D game engine. Solarus is the engine developed for the game Zelda: Mystery of....",
  "id": "2010-02-10-welcome",
  "image_thumbnail": "../../../../../assets/blog/default_article_thumbnail.jpg",
  "page_override": {
    "meta_description": "",
    "meta_image": "../../../../../assets/images/meta_image_fallback.jpg",
    "meta_title": "Welcome",
    "parent": "news",
    "slug": "news/2010-02-10-welcome",
    "title": "Welcome"
  },
  "page_slug": "news/2010-02-10-welcome",
  "publish": true,
  "title": "Welcome"
}