{
  "authors": [
    "Christopho"
  ],
  "categories": [
    "Solarus"
  ],
  "creation_date": "2008-04-02",
  "excerpt": "Bonsoir à tous ! Vous l'avez sans doute remarqué : la page d'accueil vient de subir un léger lifting. Le cadre A l'affiche a été....",
  "id": "2008-04-02-reorganisation-de-la-page-d-accueil-et-des-menus",
  "image_thumbnail": "../../../../../assets/blog/default_article_thumbnail.jpg",
  "page_override": {
    "meta_description": "",
    "meta_image": "../../../../../assets/images/meta_image_fallback.jpg",
    "meta_title": "Réorganisation de la page d'accueil et des menus",
    "parent": "news",
    "slug": "news/2008-04-02-reorganisation-de-la-page-d-accueil-et-des-menus",
    "title": "Réorganisation de la page d'accueil et des menus"
  },
  "page_slug": "news/2008-04-02-reorganisation-de-la-page-d-accueil-et-des-menus",
  "publish": true,
  "title": "Réorganisation de la page d'accueil et des menus"
}