{
  "authors": [
    "Christopho"
  ],
  "categories": [
    "Solarus"
  ],
  "creation_date": "2015-12-20",
  "excerpt": "Here is a small update of our games! Not a huge one, but it fixes the Italian translation of ZSDX and a few other issues.\r\nChanges in Zelda ROTH SE....",
  "id": "2015-12-20-another-update-of-our-games",
  "image_thumbnail": "../../../../../assets/blog/default_article_thumbnail.jpg",
  "page_override": {
    "meta_description": "",
    "meta_image": "../../../../../assets/images/meta_image_fallback.jpg",
    "meta_title": "Another update of our games",
    "parent": "news",
    "slug": "news/2015-12-20-another-update-of-our-games",
    "title": "Another update of our games"
  },
  "page_slug": "news/2015-12-20-another-update-of-our-games",
  "publish": true,
  "title": "Another update of our games"
}