{
  "authors": [
    "Christopho"
  ],
  "categories": [
    "Solarus"
  ],
  "creation_date": "2013-05-09",
  "excerpt": "Guten tag! Comme promis, une nouvelle version de Zelda Mystery of Solarus DX (1.5.2) vient de sortir, de même qu'une nouvelle version de ZSXD....",
  "id": "2013-05-09-mystery-of-solarus-dx-en-allemand",
  "image_thumbnail": "../../../../../assets/blog/default_article_thumbnail.jpg",
  "page_override": {
    "meta_description": "",
    "meta_image": "../../../../../assets/images/meta_image_fallback.jpg",
    "meta_title": "Mystery of Solarus DX en allemand",
    "parent": "news",
    "slug": "news/2013-05-09-mystery-of-solarus-dx-en-allemand",
    "title": "Mystery of Solarus DX en allemand"
  },
  "page_slug": "news/2013-05-09-mystery-of-solarus-dx-en-allemand",
  "publish": true,
  "title": "Mystery of Solarus DX en allemand"
}