{
  "authors": [
    "Olivier Cléro"
  ],
  "categories": [
    "Website"
  ],
  "creation_date": "2020-01-12",
  "excerpt": "The website now has a Tutorials section to feature the tutorials to learn to use Solarus.",
  "id": "article-2020-01-12-tutorials-on-the-website",
  "image_thumbnail": "2020-01-12-tutorials-on-the-website/cover.jpg",
  "page_override": {
    "meta_description": "The website now has a Tutorials section to feature the tutorials to learn to use Solarus.",
    "meta_image": "../../../../assets/images/meta_image_fallback.jpg",
    "meta_title": "Tutorials release on the website",
    "parent": "news",
    "slug": "news/2020-01-12-tutorials-on-the-website",
    "title": "Tutorials release on the website"
  },
  "page_slug": "news/2020-01-12-tutorials-on-the-website",
  "publish": true,
  "title": "Tutorials release on the website"
}