{
  "authors": [
    "Christopho"
  ],
  "categories": [
    "Solarus"
  ],
  "creation_date": "2003-02-05",
  "excerpt": "Comme vous avez pu le constater, le site était indisponible pendant une partie de la journée pour cause de maintenance. En effet, nous sommes....",
  "id": "2003-02-05-problemes-techniques",
  "image_thumbnail": "../../../../../assets/blog/default_article_thumbnail.jpg",
  "page_override": {
    "meta_description": "",
    "meta_image": "../../../../../assets/images/meta_image_fallback.jpg",
    "meta_title": "Problèmes techniques",
    "parent": "news",
    "slug": "news/2003-02-05-problemes-techniques",
    "title": "Problèmes techniques"
  },
  "page_slug": "news/2003-02-05-problemes-techniques",
  "publish": true,
  "title": "Problèmes techniques"
}