{
  "authors": [
    "Christopho"
  ],
  "categories": [
    "Solarus"
  ],
  "creation_date": "2008-03-31",
  "excerpt": "Oh, une mise à jour ! Le record a été battu, avec plus de deux mois sans mises à jour -_- Je vous dois donc des explications. Croyez bien que....",
  "id": "2008-03-31-zelda-solarus-dans-un-magazine-bresilien",
  "image_thumbnail": "../../../../../assets/blog/default_article_thumbnail.jpg",
  "page_override": {
    "meta_description": "",
    "meta_image": "../../../../../assets/images/meta_image_fallback.jpg",
    "meta_title": "Zelda Solarus dans un magazine brésilien !",
    "parent": "news",
    "slug": "news/2008-03-31-zelda-solarus-dans-un-magazine-bresilien",
    "title": "Zelda Solarus dans un magazine brésilien !"
  },
  "page_slug": "news/2008-03-31-zelda-solarus-dans-un-magazine-bresilien",
  "publish": true,
  "title": "Zelda Solarus dans un magazine brésilien !"
}