{
  "authors": [
    "Christopho"
  ],
  "categories": [
    "Solarus"
  ],
  "creation_date": "2013-12-01",
  "excerpt": "Une mise à jour de Solarus, ZSDX et de ZSXD vient de sortir. Elle apporte quelques corrections, dont une principale : dans la caverne de Billy le....",
  "id": "2013-12-01-zsdx-1-7-1-correction-du-bug-de-billy",
  "image_thumbnail": "../../../../../assets/blog/default_article_thumbnail.jpg",
  "page_override": {
    "meta_description": "",
    "meta_image": "../../../../../assets/images/meta_image_fallback.jpg",
    "meta_title": "ZSDX 1.7.1 : Correction du bug de Billy",
    "parent": "news",
    "slug": "news/2013-12-01-zsdx-1-7-1-correction-du-bug-de-billy",
    "title": "ZSDX 1.7.1 : Correction du bug de Billy"
  },
  "page_slug": "news/2013-12-01-zsdx-1-7-1-correction-du-bug-de-billy",
  "publish": true,
  "title": "ZSDX 1.7.1 : Correction du bug de Billy"
}