{
  "authors": [
    "Christopho"
  ],
  "categories": [
    "Solarus"
  ],
  "creation_date": "2001-10-15",
  "excerpt": "Le cinquième donjon a beaucoup avancé ce week-end et hier. Pour tout vous dire je suis en train de m'occuper du mini-boss, et après cela il ne me....",
  "id": "2001-10-15-quoi-de-neuf",
  "image_thumbnail": "../../../../../assets/blog/default_article_thumbnail.jpg",
  "page_override": {
    "meta_description": "",
    "meta_image": "../../../../../assets/images/meta_image_fallback.jpg",
    "meta_title": "Quoi de neuf ?",
    "parent": "news",
    "slug": "news/2001-10-15-quoi-de-neuf",
    "title": "Quoi de neuf ?"
  },
  "page_slug": "news/2001-10-15-quoi-de-neuf",
  "publish": true,
  "title": "Quoi de neuf ?"
}